{
  "message": {
    "content": [
      {
        "id": "21888041112360148363673050727102614332868385386430829479300456940668437488481",
        "flag": 1,
        "createTime": "2015-07-09 13:47:57",
        "lastModifyTime": "2015-07-09 13:47:57",
        "creater": null,
        "lastModifier": null,
        "businessCode": "POS",
        "businessName": "POS系统",
        "status": false,
        "description": "POS系统"
      },
      {
        "id": "21889863119243796416399131639554770785802359373498120459522638623028152722273",
        "flag": 1,
        "createTime": "2015-06-10 17:14:11",
        "lastModifyTime": "2015-06-10 17:14:11",
        "creater": null,
        "lastModifier": null,
        "businessCode": "Order_Quartz",
        "businessName": "订单定时任务",
        "status": false,
        "description": null
      },
      {
        "id": "22254109549960274023973774156178854977804942633075691625719669995673712931638",
        "flag": 1,
        "createTime": "2015-12-16 14:51:46",
        "lastModifyTime": "2015-12-16 14:51:46",
        "creater": null,
        "lastModifier": null,
        "businessCode": "deploy_test",
        "businessName": "测试业务系统",
        "status": false,
        "description": "测试业务系统1"
      },
      {
        "id": "22335102895991089697893942342816412164581906899793083568759324102687626650979",
        "flag": 1,
        "createTime": "2015-08-12 17:11:23",
        "lastModifyTime": "2015-08-12 17:11:23",
        "creater": null,
        "lastModifier": null,
        "businessCode": "ump_permission",
        "businessName": "ump_permission",
        "status": false,
        "description": "ump_permission"
      },
      {
        "id": "22716692417738040304861386472374099411489048626748787312835175225678827106610",
        "flag": 1,
        "createTime": "2015-04-29 14:52:02",
        "lastModifyTime": "2015-04-29 14:52:02",
        "creater": null,
        "lastModifier": null,
        "businessCode": "库存中心缓存同步",
        "businessName": "库存中心缓存同步",
        "status": false,
        "description": "库存中心缓存同步"
      },
      {
        "id": "22787705694375997931001020979188442407972854525630476330787731464740169606450",
        "flag": 1,
        "createTime": "2015-03-30 14:01:11",
        "lastModifyTime": "2015-03-30 14:01:11",
        "creater": null,
        "lastModifier": null,
        "businessCode": "OMS",
        "businessName": "OMS",
        "status": false,
        "description": "统一订单"
      },
      {
        "id": "23153117311324303683313993098824335868947963913273004812407962530358714578790",
        "flag": 1,
        "createTime": "2015-12-14 11:45:59",
        "lastModifyTime": "2015-12-14 11:45:59",
        "creater": null,
        "lastModifier": null,
        "businessCode": "banggo_app",
        "businessName": "邦购APP",
        "status": false,
        "description": null
      },
      {
        "id": "23239727456291345580074459537448747264416598995110169957540981127061196793187",
        "flag": 1,
        "createTime": "2015-08-11 18:03:35",
        "lastModifyTime": "2015-08-11 18:03:35",
        "creater": null,
        "lastModifier": null,
        "businessCode": "mba_test",
        "businessName": "mba_test",
        "status": false,
        "description": "mba_test"
      },
      {
        "id": "23241502418512271767457895802606281736833609320219272975338191820973702067763",
        "flag": 1,
        "createTime": "2015-03-06 11:59:48",
        "lastModifyTime": "2015-03-06 11:59:48",
        "creater": null,
        "lastModifier": null,
        "businessCode": "ump_schedule",
        "businessName": "ump_schedule",
        "status": false,
        "description": "ump_schedule"
      },
      {
        "id": "23699398752612636593170756591895192056556136886003543858358155593472154297699",
        "flag": 1,
        "createTime": "2015-09-10 15:38:33",
        "lastModifyTime": "2015-09-10 15:38:33",
        "creater": null,
        "lastModifier": null,
        "businessCode": "unit_stock",
        "businessName": "统一库存",
        "status": false,
        "description": "统一库存"
      }
    ],
    "totalPages": 3,
    "last": false,
    "totalElements": 28,
    "size": 10,
    "number": 0,
    "first": true,
    "numberOfElements": 10,
    "sort": {}
  }
}